{
  "Actor": {
    "types": [
      "character",
      "extra",
      "entity"
    ],
    "templates": {
      "base": {
        "sex": {
          "value": "",
          "label": "GB.SEX"
        },
        "age": {
          "value": "",
          "label": "GB.AGE"
        },
        "eyes": {
          "value": "",
          "label": "GB.EYES"
        },
        "hair": {
          "value": "",
          "label": "GB.HAIR"
        },
        "height": {
          "value": "",
          "label": "GB.HEIGHT"
        },
        "weight": {
          "value": "",
          "label": "GB.WEIGHT"
        },
        "special_abilities": {
          "value": "",
          "label": "GB.SPECIAL_ABILITIES"
        },
        "medical_history": {
          "value": 6,
          "min": 0,
          "max": 6,
          "label": "GB.MEDICAL_HISTORY"
        },
        "goal": {
          "value": "",
          "label": "GB.GOAL"
        },
        "tags": {
          "value": "",
          "label": "GB.TAGS"
        },
        "traits": {
          "brains": {
            "value": 0,
            "current": 0,
            "active": true,
            "label": "GB.BRAINS",
            "attached": {
              "names": "",
              "value": 0,
              "label": "GB.TALENT"
            }
          },
          "muscles": {
            "value": 0,
            "current": 0,
            "active": true,
            "label": "GB.MUSCLES",
            "attached": {
              "names": "",
              "value": 0,
              "label": "GB.TALENT"
            }
          },
          "moves": {
            "value": 0,
            "current": 0,
            "active": true,
            "label": "GB.MOVES",
            "attached": {
              "names": "",
              "value": 0,
              "label": "GB.TALENT"
            }
          },
          "cool": {
            "value": 0,
            "current": 0,
            "active": true,
            "label": "GB.COOL",
            "attached": {
              "names": "",
              "value": 0,
              "label": "GB.TALENT"
            }
          },
          "power": {
            "value": 0,
            "current": 0,
            "label": "GB.POWER",
            "active": false,
            "attached": false
          }
        }
      }
    },
    "character": {
      "templates": [
        "base"
      ],
      "alias": {
        "value": "",
        "label": "GB.ALIAS"
      },
      "residence": {
        "value": "",
        "label": "GB.RESIDENCE"
      },
      "phone": {
        "value": "",
        "label": "GB.PHONE"
      },
      "telex": {
        "value": "",
        "label": "GB.TELEX"
      },
      "brownie_points": {
        "value": 0,
        "label": "GB.BROWNIE_POINTS"
      }
    },
    "extra": {
      "templates": [
        "base"
      ],
      "description": {
        "value": "                                                                               ",
        "label": "GB.DESCRIPTION"
      }
    },
    "entity": {
      "templates": [
        "base"
      ],
      "type": {
        "value": 0,
        "label": "GB.TYPE"
      },
      "weaknesses": {
        "value": "",
        "label": "GB.WEAKNESSES"
      },
      "history": {
        "value": "",
        "label": "GB.HISTORY"
      },
      "intelligent": 0,
      "traits": {
        "power": {
          "value": 0,
          "current": 0,
          "label": "GB.POWER",
          "active": true
        },
        "ecto_presence": {
          "value": 0,
          "current": 0,
          "label": "GB.ECTO_PRESENCE",
          "active": true,
          "attached": false
        }
      }
    }
  },
  "Item": {
    "types": [
      "gear"
    ],
    "templates": {
      "base": {
        "description": ""
      }
    },
    "gear": {
      "templates": [
        "base"
      ],
      "location": "",
      "quantity": 1,
      "hands": 0,
      "muscle": 0
    }
  }
}
